<?xml version="1.0" encoding="UTF-8"?>
<svg width="21px" height="21px" viewBox="0 0 21 21" version="1.1" xmlns="http://www.w3.org/2000/svg" xmlns:xlink="http://www.w3.org/1999/xlink">
    <!-- Generator: Sketch 53 (72520) - https://sketchapp.com -->
    <title>Path</title>
    <desc>Created with Sketch.</desc>
    <g id="Page-1" stroke="none" stroke-width="1" fill="none" fill-rule="evenodd">
        <g id="Photographer_Theme" transform="translate(-545.000000, -9809.000000)" fill="#000000">
            <g id="mobile_awards" transform="translate(303.000000, 9789.000000)">
                <g id="mobile_header-copy" transform="translate(30.000000, 15.000000)">
                    <g id="baseline-phone-24px" transform="translate(212.000000, 5.000000)">
                        <path d="M4.22333333,9.08833333 C5.90333333,12.39 8.61,15.085 11.9116667,16.7766667 L14.4783333,14.21 C14.7933333,13.895 15.26,13.79 15.6683333,13.93 C16.975,14.3616667 18.3866667,14.595 19.8333333,14.595 C20.475,14.595 21,15.12 21,15.7616667 L21,19.8333333 C21,20.475 20.475,21 19.8333333,21 C8.87833333,21 0,12.1216667 0,1.16666667 C0,0.525 0.525,0 1.16666667,0 L5.25,0 C5.89166667,0 6.41666667,0.525 6.41666667,1.16666667 C6.41666667,2.625 6.65,4.025 7.08166667,5.33166667 C7.21,5.74 7.11666667,6.195 6.79,6.52166667 L4.22333333,9.08833333 Z" id="Path"></path>
                    </g>
                </g>
            </g>
        </g>
    </g>
</svg>